city,          month,   average-high
San Francisco, January, 57
San Francisco, February, 60
San Francisco, March, 62
San Francisco, April, 63
San Francisco, May, 64
San Francisco, June, 66
San Francisco, July, 67
San Francisco, August, 68
San Francisco, September, 70
San Francisco, October, 69
San Francisco, November, 63
San Francisco, December, 57
Hoboken, January, 38
Hoboken, February, 42
Hoboken, March, 50
Hoboken, April, 61
Hoboken, May, 71
Hoboken, June, 79
Hoboken, July, 84
Hoboken, August, 83
Hoboken, September, 75
Hoboken, October, 64
Hoboken, November, 54
Hoboken, December, 43

